^C:\Users\cavit.kara\source\repos\Task_Ceitec\task_ceitec\matrix multiplication\Test1\Test1.vcxproj
C:\Users\cavit.kara\source\repos\Task_Ceitec\task_ceitec\matrix multiplication\x64\Debug\gtest.pdb
C:\Users\cavit.kara\source\repos\Task_Ceitec\task_ceitec\matrix multiplication\x64\Debug\gtest_main.pdb
^C:\Users\cavit.kara\source\repos\Task_Ceitec\task_ceitec\matrix multiplication\Test1\Test1.vcxproj
C:\Users\cavit.kara\source\repos\Task_Ceitec\task_ceitec\matrix multiplication\x64\Debug\gtest.pdb
C:\Users\cavit.kara\source\repos\Task_Ceitec\task_ceitec\matrix multiplication\x64\Debug\gtest_main.pdb
^C:\Users\cavit.kara\source\repos\Task_Ceitec\task_ceitec\matrix multiplication\Test1\Test1.vcxproj
C:\Users\cavit.kara\source\repos\Task_Ceitec\task_ceitec\matrix multiplication\x64\Debug\gtest.pdb
C:\Users\cavit.kara\source\repos\Task_Ceitec\task_ceitec\matrix multiplication\x64\Debug\gtest_main.pdb
^C:\Users\cavit.kara\source\repos\Task_Ceitec\task_ceitec\matrix multiplication\Test1\Test1.vcxproj
C:\Users\cavit.kara\source\repos\Task_Ceitec\task_ceitec\matrix multiplication\x64\Debug\gtest.pdb
C:\Users\cavit.kara\source\repos\Task_Ceitec\task_ceitec\matrix multiplication\x64\Debug\gtest_main.pdb
^C:\Users\cavit.kara\source\repos\Task_Ceitec\task_ceitec\matrix multiplication\Test1\Test1.vcxproj
C:\Users\cavit.kara\source\repos\Task_Ceitec\task_ceitec\matrix multiplication\x64\Debug\gtest.pdb
C:\Users\cavit.kara\source\repos\Task_Ceitec\task_ceitec\matrix multiplication\x64\Debug\gtest_main.pdb
^C:\Users\cavit.kara\source\repos\Task_Ceitec\task_ceitec\matrix multiplication\Test1\Test1.vcxproj
C:\Users\cavit.kara\source\repos\Task_Ceitec\task_ceitec\matrix multiplication\x64\Debug\gtest.pdb
C:\Users\cavit.kara\source\repos\Task_Ceitec\task_ceitec\matrix multiplication\x64\Debug\gtest_main.pdb
^C:\Users\cavit.kara\source\repos\Task_Ceitec\task_ceitec\matrix multiplication\Test1\Test1.vcxproj
C:\Users\cavit.kara\source\repos\Task_Ceitec\task_ceitec\matrix multiplication\x64\Debug\gtest.pdb
C:\Users\cavit.kara\source\repos\Task_Ceitec\task_ceitec\matrix multiplication\x64\Debug\gtest_main.pdb
^C:\Users\cavit.kara\source\repos\Task_Ceitec\task_ceitec\matrix multiplication\Test1\Test1.vcxproj
C:\Users\cavit.kara\source\repos\Task_Ceitec\task_ceitec\matrix multiplication\x64\Debug\gtest.pdb
C:\Users\cavit.kara\source\repos\Task_Ceitec\task_ceitec\matrix multiplication\x64\Debug\gtest_main.pdb
